<?xml version="1.0"?>
<robot name="myfirst">

<material name="black">
    <color rgba="0 0 0 1"/>
  </material>
  
  <link name="base_link">
    <visual>
      <geometry>
        <box size="0.6 0.8 0.6"/>
      </geometry>
    </visual>
    <collision>
      <geometry>
        <box size="0.6 0.8 0.6"/>
      </geometry>
    </collision>
<inertial>
      <mass value="40"/>
      <inertia ixx="1" ixy="0.0" ixz="0.0" iyy="1" iyz="0.0" izz="1"/>
    </inertial>

  </link>
  
  <link name="base_kyzov">
    <visual>
      <geometry>
        <box size="0.4 0.4 0.2"/>
      </geometry>
    </visual>
    <collision>
      <geometry>
        <box size="0.4 0.4 0.2"/>
      </geometry>
    </collision>
    <inertial>
      <mass value="20"/>
      <inertia ixx="0.5" ixy="0.0" ixz="0.0" iyy="0.5" iyz="0.0" izz="0.5"/>
    </inertial>

  </link>
  
  <link name="base_kyzov2">
    <visual>
      <geometry>
        <box size="0.2 0.2 0.2"/>
      </geometry>
    </visual>
    <collision>
      <geometry>
        <box size="0.2 0.2 0.2"/>
      </geometry>
    </collision>
    <inertial>
      <mass value="10"/>
      <inertia ixx="0.25" ixy="0.0" ixz="0.0" iyy="0.25" iyz="0.0" izz="0.25"/>
    </inertial>

  </link>
  
  <joint name="base_to_kyzov" type="continuous">
    <parent link="base_link"/>
    <axis xyz="0 1 0"/>
    <child link="base_kyzov"/>
    <origin xyz="0 0.60 -0.20"/>
  </joint>
  
  <joint name="base_to_kyzov2" type="continuous">
    <parent link="base_link"/>
    <axis xyz="0 1 0"/>
    <child link="base_kyzov2"/>
    <origin xyz="0 0.50 0.0"/>
  </joint>
  
  <link name="right_front_wheel">
    <visual>
      <origin rpy="0 1.57075 0" xyz="0 0 0"/>
      <geometry>
        <cylinder length="0.1" radius="0.1"/>
      </geometry>
      <material name="black"/>
      <origin rpy="0 0 0" xyz="0 0 0"/>
    </visual>
    <collision>
      <geometry>
        <cylinder length="0.1" radius="0.1"/>
      </geometry>
    </collision>
    <inertial>
      <mass value="10"/>
      <inertia ixx="0.25" ixy="0.0" ixz="0.0" iyy="0.25" iyz="0.0" izz="0.25"/>
    </inertial>

  </link>
  
  <joint name="right_front_wheel_joint" type="continuous">
    <parent link="base_link"/>
    <axis xyz="0 1 0"/>
    <child link="right_front_wheel"/>
    <origin rpy="0 0 0" xyz="0.2 0.35 -0.40"/>
  </joint>
  
  <link name="left_front_wheel">
    <visual>
      <origin rpy="0 1.57075 0" xyz="0 0 0"/>
      <geometry>
        <cylinder length="0.1" radius="0.1"/>
      </geometry>
      <material name="black"/>
      <origin rpy="0 0 0" xyz="0 0 0"/>
    </visual>
    <collision>
      <geometry>
        <cylinder length="0.1" radius="0.1"/>
      </geometry>
    </collision>
    <inertial>
      <mass value="10"/>
      <inertia ixx="0.25" ixy="0.0" ixz="0.0" iyy="0.25" iyz="0.0" izz="0.25"/>
    </inertial>

  </link>
  
  <joint name="left_front_wheel_joint" type="continuous">
    <parent link="base_link"/>
    <axis xyz="0 1 0"/>
    <child link="left_front_wheel"/>
    <origin rpy="0 0 0" xyz="0.2 -0.35 -0.40"/>
  </joint>
  
  <link name="left_back_wheel">
    <visual>
      <origin rpy="0 1.57075 0" xyz="0 0 0"/>
      <geometry>
        <cylinder length="0.1" radius="0.1"/>
      </geometry>
      <material name="black"/>
      <origin rpy="0 0 0" xyz="0 0 0"/>
    </visual>
    <collision>
      <geometry>
        <cylinder length="0.1" radius="0.1"/>
      </geometry>
    </collision>
    <inertial>
      <mass value="10"/>
      <inertia ixx="0.25" ixy="0.0" ixz="0.0" iyy="0.25" iyz="0.0" izz="0.25"/>
    </inertial>

  </link>
  
  <joint name="left_back_wheel_joint" type="continuous">
    <parent link="base_link"/>
    <axis xyz="0 1 0"/>
    <child link="left_back_wheel"/>
    <origin rpy="0 0 0" xyz="-0.2 -0.35 -0.40"/>
  </joint>
  
  <link name="right_back_wheel">
    <visual>
      <origin rpy="0 1.57075 0" xyz="0 0 0"/>
      <geometry>
        <cylinder length="0.1" radius="0.1"/>
      </geometry>
      <material name="black"/>
      <origin rpy="0 0 0" xyz="0 0 0"/>
    </visual>
    <collision>
      <geometry>
        <cylinder length="0.1" radius="0.1"/>
      </geometry>
    </collision>
    <inertial>
      <mass value="10"/>
      <inertia ixx="0.25" ixy="0.0" ixz="0.0" iyy="0.25" iyz="0.0" izz="0.25"/>
    </inertial>

  </link>
  
  <joint name="right_back_wheel_joint" type="continuous">
    <parent link="base_link"/>
    <child link="right_back_wheel"/>
    <axis xyz="0 1 0"/>
    <origin rpy="0 0 0" xyz="-0.2 0.35 -0.40"/>
  </joint>
</robot>
